{
    "_links": {
        "self": {
            "href": "http:\/\/default\/media\/1\/edit?_format=hal_json"
        },
        "type": {
            "href": "http:\/\/drupal.org\/rest\/type\/media\/general_images"
        },
        "http:\/\/drupal.org\/rest\/relation\/media\/general_images\/uid": [
            {
                "href": "http:\/\/default\/user\/1?_format=hal_json",
                "lang": "ru"
            }
        ],
        "http:\/\/drupal.org\/rest\/relation\/media\/general_images\/thumbnail": [
            {
                "href": "http:\/\/default\/sites\/default\/files\/2020-04\/designer_1.png",
                "lang": "ru"
            }
        ],
        "http:\/\/drupal.org\/rest\/relation\/media\/general_images\/field_media_image": [
            {
                "href": "http:\/\/default\/sites\/default\/files\/2020-04\/designer_1.png",
                "lang": "ru"
            }
        ]
    },
    "mid": [
        {
            "value": 1
        }
    ],
    "uuid": [
        {
            "value": "89beaabe-625f-4918-893c-3e2c3c9621cb"
        }
    ],
    "vid": [
        {
            "value": 1
        }
    ],
    "langcode": [
        {
            "value": "ru",
            "lang": "ru"
        }
    ],
    "bundle": [
        {
            "target_id": "general_images"
        }
    ],
    "revision_created": [
        {
            "value": "2020-04-17T14:01:10+00:00",
            "format": "Y-m-d\\TH:i:sP"
        }
    ],
    "status": [
        {
            "value": true,
            "lang": "ru"
        }
    ],
    "_embedded": {
        "http:\/\/drupal.org\/rest\/relation\/media\/general_images\/uid": [
            {
                "_links": {
                    "self": {
                        "href": "http:\/\/default\/user\/1?_format=hal_json"
                    },
                    "type": {
                        "href": "http:\/\/drupal.org\/rest\/type\/user\/user"
                    }
                },
                "uuid": [
                    {
                        "value": "66270ce2-b3ed-4d1b-92fc-d9581c4603ea"
                    }
                ],
                "lang": "ru"
            }
        ],
        "http:\/\/drupal.org\/rest\/relation\/media\/general_images\/thumbnail": [
            {
                "_links": {
                    "self": {
                        "href": "http:\/\/default\/sites\/default\/files\/2020-04\/designer_1.png"
                    },
                    "type": {
                        "href": "http:\/\/drupal.org\/rest\/type\/file\/file"
                    }
                },
                "uuid": [
                    {
                        "value": "39bd35f5-7909-4188-8ac7-db68696a6f44"
                    }
                ],
                "lang": "ru"
            }
        ],
        "http:\/\/drupal.org\/rest\/relation\/media\/general_images\/field_media_image": [
            {
                "_links": {
                    "self": {
                        "href": "http:\/\/default\/sites\/default\/files\/2020-04\/designer_1.png"
                    },
                    "type": {
                        "href": "http:\/\/drupal.org\/rest\/type\/file\/file"
                    }
                },
                "uuid": [
                    {
                        "value": "39bd35f5-7909-4188-8ac7-db68696a6f44"
                    }
                ],
                "lang": "ru"
            }
        ]
    },
    "name": [
        {
            "value": "designer_1.png",
            "lang": "ru"
        }
    ],
    "created": [
        {
            "value": "2020-04-17T14:00:41+00:00",
            "lang": "ru",
            "format": "Y-m-d\\TH:i:sP"
        }
    ],
    "changed": [
        {
            "value": "2020-04-17T14:00:41+00:00",
            "lang": "ru",
            "format": "Y-m-d\\TH:i:sP"
        }
    ],
    "default_langcode": [
        {
            "value": true,
            "lang": "ru"
        }
    ],
    "revision_translation_affected": [
        {
            "value": true,
            "lang": "ru"
        }
    ],
    "metatag": [
        {
            "value": {
                "title": "| Landie",
                "canonical_url": "http:\/\/default\/front_page"
            }
        }
    ],
    "path": [
        {
            "alias": null,
            "pid": null,
            "langcode": "ru",
            "lang": "ru"
        }
    ]
}