{
    "_links": {
        "self": {
            "href": "http:\/\/default\/sites\/default\/files\/2020-04\/designer_1.png"
        },
        "type": {
            "href": "http:\/\/drupal.org\/rest\/type\/file\/file"
        },
        "http:\/\/drupal.org\/rest\/relation\/file\/file\/uid": [
            {
                "href": "http:\/\/default\/user\/1?_format=hal_json"
            }
        ]
    },
    "fid": [
        {
            "value": 1
        }
    ],
    "uuid": [
        {
            "value": "39bd35f5-7909-4188-8ac7-db68696a6f44"
        }
    ],
    "langcode": [
        {
            "value": "ru"
        }
    ],
    "_embedded": {
        "http:\/\/drupal.org\/rest\/relation\/file\/file\/uid": [
            {
                "_links": {
                    "self": {
                        "href": "http:\/\/default\/user\/1?_format=hal_json"
                    },
                    "type": {
                        "href": "http:\/\/drupal.org\/rest\/type\/user\/user"
                    }
                },
                "uuid": [
                    {
                        "value": "66270ce2-b3ed-4d1b-92fc-d9581c4603ea"
                    }
                ]
            }
        ]
    },
    "filename": [
        {
            "value": "designer_1.png"
        }
    ],
    "uri": [
        {
            "value": "public:\/\/2020-04\/designer_1.png",
            "url": "\/sites\/default\/files\/2020-04\/designer_1.png"
        }
    ],
    "filemime": [
        {
            "value": "image\/png"
        }
    ],
    "filesize": [
        {
            "value": 134936
        }
    ],
    "status": [
        {
            "value": true
        }
    ],
    "created": [
        {
            "value": "2020-04-17T14:00:41+00:00",
            "format": "Y-m-d\\TH:i:sP"
        }
    ],
    "changed": [
        {
            "value": "2020-04-17T14:01:10+00:00",
            "format": "Y-m-d\\TH:i:sP"
        }
    ]
}